Spatially Distorted Signaling Wind Infrastructre
…
\(odds(p̂)=p̂1−p̂=exp(β̂0+β̂1⋅x)\)

We’re going create an status_popden_odds variable for predicted odds.

That is, the ratio of the odds after a one unit increase in x to the odds before that one unit change is equal to eβ1. Notice this doesn’t depend on x anymore! Therefore, it’s a useful interpretation of coefficients.

status_popden_predicted_odds <-  status %>%
  augment(type.predict = "response") %>%
  mutate(y_hat = .fitted) %>% 
  mutate(odds_hat = y_hat / (1 - y_hat))

status_popden_predicted_odds

# A tibble: 1,179 × 10
   status pop_den .fitted .resid     .hat .sigma   .cooksd .std.resid y_hat
    <dbl>   <dbl>   <dbl>  <dbl>    <dbl>  <dbl>     <dbl>      <dbl> <dbl>
 1      1  553.     0.967  0.260 0.00147   0.555 0.0000253      0.260 0.967
 2      1   26.0    0.964  0.272 0.000901  0.555 0.0000170      0.272 0.964
 3      1    2.54   0.963  0.273 0.000925  0.555 0.0000176      0.273 0.963
 4      1 1537.     0.972  0.238 0.00681   0.555 0.0000994      0.239 0.972
 5      1 3683.     0.981  0.197 0.0274    0.555 0.000284       0.200 0.981
 6      1  401.     0.966  0.263 0.00110   0.555 0.0000195      0.264 0.966
 7      1   46.9    0.964  0.272 0.000884  0.555 0.0000167      0.272 0.964
 8      1  113.     0.964  0.270 0.000853  0.555 0.0000159      0.270 0.964
 9      1   40.5    0.964  0.272 0.000889  0.555 0.0000168      0.272 0.964
10      1 2529.     0.976  0.218 0.0156    0.555 0.000194       0.220 0.976
# ℹ 1,169 more rows
# ℹ 1 more variable: odds_hat <dbl>
…
[1] 1.497159e-05

By including the median income variable in our model and exponentiating the coefficients, we see a huge effect. Areas with an increase in population density observed an increase in their odds of having active wind infrastructure by a factor of 2.48e-04% when controlling the median income. However, the odds of operating status decrease by 1.5e-05 for each average unit increase in median income.

Probabilistic Predictions

We are going to making some probability predictions using out-of-sample predictions using the type.predict argument set as “response”, to retrieve fitted values on the familiar probability scale.

# probability scale
probability_predictions <- augment(status_2, type.predict = "response")

probability_predictions

# A tibble: 1,179 × 9
   status pop_den med_inc .fitted .resid     .hat .sigma   .cooksd .std.resid
    <dbl>   <dbl>   <int>   <dbl>  <dbl>    <dbl>  <dbl>     <dbl>      <dbl>
 1      1  553.     28103   0.977  0.216 0.00251   0.553 0.0000199      0.216
 2      1   26.0    49704   0.964  0.270 0.000917  0.553 0.0000114      0.271
 3      1    2.54   57532   0.960  0.287 0.00113   0.553 0.0000159      0.287
 4      1 1537.     48879   0.975  0.224 0.00764   0.553 0.0000655      0.224
 5      1 3683.     48900   0.985  0.172 0.0268    0.553 0.000140       0.174
 6      1  401.     64009   0.960  0.287 0.00166   0.553 0.0000234      0.287
 7      1   46.9    82210   0.943  0.342 0.00525   0.553 0.000107       0.343
 8      1  113.     52788   0.963  0.274 0.000877  0.553 0.0000112      0.274
 9      1   40.5    49875   0.964  0.270 0.000903  0.553 0.0000112      0.270
10      1 2529.     58076   0.978  0.212 0.0183    0.553 0.000144       0.214
# ℹ 1,169 more rows
…
Table of Binary Predictions

What do these predictions tell us?

Well, they lend us some insight into whether or not we can definitively predict the status outcome of a region depending on their population density and position on wind opposition. They additionally provide the model fit (\(R^2\)) value associated with the predicted value.

status_binary <- augment(status_3, type.predict = "response") %>%
    mutate(operating_hat = round(.fitted))
  
binary_predictions <- status_binary %>%
  dplyr::select(status, pop_den, is_anti_wind, .fitted, operating_hat)

binary_predictions

# A tibble: 1,179 × 5
   status pop_den is_anti_wind .fitted operating_hat
    <dbl>   <dbl>        <int>   <dbl>         <dbl>
 1      1  553.              1   0.847             1
 2      1   26.0             0   0.989             1
 3      1    2.54            0   0.989             1
 4      1 1537.              0   0.990             1
 5      1 3683.              0   0.991             1
 6      1  401.              0   0.989             1
 7      1   46.9             0   0.989             1
 8      1  113.              0   0.989             1
 9      1   40.5             0   0.989             1
10      1 2529.              0   0.991             1
# ℹ 1,169 more rows
…
